[api-updater (non-obsolete-error-filter)] 31.05.2022 23:07:10 : Starting C:/Program Files/Unity/Hub/Editor/2020.3.26f1/Editor/Data/Tools/ScriptUpdater/APIUpdater.NonObsoleteApiUpdaterDetector.exe
[api-updater (non-obsolete-error-filter)] 
----------------------------------
jit/startup time      : 845,3664ms
moved types parse time: 59ms
candidates parse time : 2ms
C# parse time         : 334ms
candidates check time : 37ms
console write time    : 1ms

[api-updater (non-obsolete-error-filter)] 02.06.2022 17:21:55 : Starting C:/Program Files/Unity/Hub/Editor/2020.3.26f1/Editor/Data/Tools/ScriptUpdater/APIUpdater.NonObsoleteApiUpdaterDetector.exe
[api-updater (non-obsolete-error-filter)] 
----------------------------------
jit/startup time      : 655,2163ms
moved types parse time: 45ms
candidates parse time : 1ms
C# parse time         : 237ms
candidates check time : 24ms
console write time    : 0ms

[api-updater (non-obsolete-error-filter)] 03.06.2022 10:33:51 : Starting C:/Program Files/Unity/Hub/Editor/2020.3.26f1/Editor/Data/Tools/ScriptUpdater/APIUpdater.NonObsoleteApiUpdaterDetector.exe
[api-updater (non-obsolete-error-filter)] 
----------------------------------
jit/startup time      : 714,0749ms
moved types parse time: 50ms
candidates parse time : 1ms
C# parse time         : 269ms
candidates check time : 46ms
console write time    : 0ms

[api-updater (non-obsolete-error-filter)] 05.06.2022 19:25:36 : Starting C:/Program Files/Unity/Hub/Editor/2020.3.26f1/Editor/Data/Tools/ScriptUpdater/APIUpdater.NonObsoleteApiUpdaterDetector.exe
[api-updater (non-obsolete-error-filter)] 
----------------------------------
jit/startup time      : 913,2822ms
moved types parse time: 61ms
candidates parse time : 1ms
C# parse time         : 268ms
candidates check time : 61ms
console write time    : 0ms

